^C:\USERS\USER\DOCUMENTS\VISUAL STUDIO 2013\PROJECTS\WINAPI\WINAPI\DEBUG\HELPER.OBJ|C:\USERS\USER\DOCUMENTS\VISUAL STUDIO 2013\PROJECTS\WINAPI\WINAPI\DEBUG\SOURCE.OBJ
C:\USERS\USER\DOCUMENTS\VISUAL STUDIO 2013\PROJECTS\WINAPI\DEBUG\WINAPI.ILK
C:\USERS\USER\DOCUMENTS\VISUAL STUDIO 2013\PROJECTS\WINAPI\DEBUG\WINAPI.EXE
C:\USERS\USER\DOCUMENTS\VISUAL STUDIO 2013\PROJECTS\WINAPI\DEBUG\WINAPI.PDB
